A tutorial on using the footyr package
…
Retrieve squad information of your football team with myplayer()

This function that allows you to retrieve squad statistics of a football team of your choice, including individual player and coaching staff statistics.

Let us once again retrieve squad information on the team Arsenal, who play in the EPL, specifying the team ID code (19) in the first argument teamID. We get the output in the form of a dataframe containing information of the entire squad in Arsenal.

myplayer(teamID = 19)
#> # A tibble: 33 x 13
#>    TeamID PlayerID Name  Birthday Height Country Dominant_Foot Weight Value
#>    <chr>  <chr>    <chr> <chr>     <int> <chr>   <chr>          <int> <int>
#>  1 19     171322   Buka… ""            0 ""      ""                 0     0
#>  2 19     60220    Alex… 1991-05…    176 France  Right             73  6300
#>  3 19     67879    Shko… 1992-04…    184 Germany Right             73  1620
#>  4 19     79200    Gran… 1992-09…    186 Switze… Left              70  3600
#>  5 19     64796    Pier… 1989-06…    187 Gabon   Right             75  6300
#>  6 19     59595    Sokr… 1988-06…    186 Greece  Right             82  1800
#>  7 19     87969    Bern… 1992-03…    189 Germany Right             79  2700
#>  8 19     59933    Mesu… 1988-10…    180 Germany Left              73  2250
#>  9 19     96297    Sead… 1993-06…    183 Bosnia… Left              82  1800
#> 10 19     67908    Davi… 1987-04…    189 Brazil  Right             84  1800
#> # … with 23 more rows, and 4 more variables: Player_Position <chr>,
#> #   Jersey_Number <int>, Contract_Expiry <chr>, Photo <chr>
…
